[
  {
    "key": "tipe1", 
    "value":"1-10"
  },
  {
    "key": "tipe2", 
    "value":"11-50"
  },
  {
    "key": "tipe3", 
    "value":"51-200"
  },
  {
    "key": "tipe4", 
    "value":"201-500"
  },
  {
    "key": "tipe5", 
    "value":"501-1000"
  },
  {
    "key": "tipe6", 
    "value":"1001-2000"
  },
  {
    "key": "tipe7", 
    "value":"2001-5000"
  },
  {
    "key": "tipe8", 
    "value":"5000+"
  }
]